link,p1,p2,domains,datatypes,languages,hits,misses,hitRate
http://dbpedia.org/ontology/child,http://xmlns.com/foaf/0.1/gender,http://xmlns.com/foaf/0.1/surname,http://dbpedia.org/ontology/Person,,en,525,0,1.0
http://dbpedia.org/ontology/relative,http://xmlns.com/foaf/0.1/gender,http://xmlns.com/foaf/0.1/surname,http://dbpedia.org/ontology/Person,,en,412,0,1.0
http://dbpedia.org/ontology/parent,http://purl.org/dc/terms/description,http://xmlns.com/foaf/0.1/gender,http://dbpedia.org/ontology/Person,,en,405,0,1.0
http://dbpedia.org/ontology/parent,http://xmlns.com/foaf/0.1/gender,http://xmlns.com/foaf/0.1/surname,http://dbpedia.org/ontology/Person,,en,379,0,1.0
http://dbpedia.org/ontology/relation,http://xmlns.com/foaf/0.1/gender,http://xmlns.com/foaf/0.1/surname,http://dbpedia.org/ontology/Person,,en,314,0,1.0
http://dbpedia.org/ontology/parent,http://xmlns.com/foaf/0.1/gender,http://xmlns.com/foaf/0.1/givenName,http://dbpedia.org/ontology/Person,,en,306,0,1.0
http://dbpedia.org/ontology/child,http://purl.org/dc/terms/description,http://xmlns.com/foaf/0.1/gender,http://dbpedia.org/ontology/Person,,en,265,0,1.0
http://dbpedia.org/ontology/relative,http://purl.org/dc/terms/description,http://xmlns.com/foaf/0.1/gender,http://dbpedia.org/ontology/Person,,en,253,0,1.0
http://dbpedia.org/ontology/child,http://xmlns.com/foaf/0.1/gender,http://xmlns.com/foaf/0.1/givenName,http://dbpedia.org/ontology/Person,,en,245,0,1.0
http://dbpedia.org/ontology/relation,http://purl.org/dc/terms/description,http://xmlns.com/foaf/0.1/gender,http://dbpedia.org/ontology/Person,,en,244,0,1.0
http://dbpedia.org/ontology/parent,http://dbpedia.org/ontology/activeYearsStartYear,http://xmlns.com/foaf/0.1/gender,http://dbpedia.org/ontology/Person,http://www.w3.org/2001/XMLSchema#gYear,en,231,0,1.0
http://dbpedia.org/ontology/parent,http://dbpedia.org/ontology/title,http://xmlns.com/foaf/0.1/gender,http://dbpedia.org/ontology/Person,,en,228,0,1.0
http://dbpedia.org/ontology/relative,http://purl.org/dc/terms/description,http://xmlns.com/foaf/0.1/surname,http://dbpedia.org/ontology/Person,,en,118,0,1.0
http://dbpedia.org/ontology/relation,http://xmlns.com/foaf/0.1/gender,http://xmlns.com/foaf/0.1/givenName,http://dbpedia.org/ontology/Person,,en,99,0,1.0
http://dbpedia.org/ontology/spouse,http://dbpedia.org/ontology/activeYearsEndYear,http://dbpedia.org/ontology/activeYearsStartYear,http://dbpedia.org/ontology/Person,http://www.w3.org/2001/XMLSchema#gYear,,93,0,1.0
http://dbpedia.org/ontology/child,http://purl.org/dc/terms/description,http://xmlns.com/foaf/0.1/surname,http://dbpedia.org/ontology/Person,,en,86,0,1.0
http://dbpedia.org/ontology/parent,http://xmlns.com/foaf/0.1/gender,http://xmlns.com/foaf/0.1/name,http://dbpedia.org/ontology/Person,,en,86,0,1.0
http://dbpedia.org/ontology/relation,http://dbpedia.org/ontology/allegiance,http://xmlns.com/foaf/0.1/gender,http://dbpedia.org/ontology/Person,http://www.w3.org/2001/XMLSchema#string,en,82,0,1.0
http://dbpedia.org/ontology/relation,http://purl.org/dc/terms/description,http://xmlns.com/foaf/0.1/surname,http://dbpedia.org/ontology/Person,,en,75,0,1.0
http://dbpedia.org/ontology/spouse,http://purl.org/dc/terms/description,http://xmlns.com/foaf/0.1/surname,http://dbpedia.org/ontology/Person,,en,66,0,1.0
http://dbpedia.org/ontology/relation,http://dbpedia.org/ontology/office,http://xmlns.com/foaf/0.1/gender,http://dbpedia.org/ontology/Person,http://www.w3.org/2001/XMLSchema#string,en,66,0,1.0
http://dbpedia.org/ontology/relative,http://xmlns.com/foaf/0.1/gender,http://xmlns.com/foaf/0.1/givenName,http://dbpedia.org/ontology/Person,,en,54,0,1.0
http://dbpedia.org/ontology/child,http://purl.org/dc/terms/description,http://xmlns.com/foaf/0.1/givenName,http://dbpedia.org/ontology/Person,,en,53,0,1.0
http://dbpedia.org/ontology/parent,http://dbpedia.org/ontology/activeYearsStartYear,http://dbpedia.org/ontology/title,http://dbpedia.org/ontology/Person,http://www.w3.org/2001/XMLSchema#gYear,en,53,0,1.0
http://dbpedia.org/ontology/child,http://xmlns.com/foaf/0.1/gender,http://xmlns.com/foaf/0.1/name,http://dbpedia.org/ontology/Person,,en,52,0,1.0
http://dbpedia.org/ontology/parent,http://purl.org/dc/terms/description,http://xmlns.com/foaf/0.1/surname,http://dbpedia.org/ontology/Person,,en,51,0,1.0
http://dbpedia.org/ontology/parent,http://dbpedia.org/ontology/activeYearsStartYear,http://purl.org/dc/terms/description,http://dbpedia.org/ontology/Person,http://www.w3.org/2001/XMLSchema#gYear,en,48,0,1.0
http://dbpedia.org/ontology/parent,http://purl.org/dc/terms/description,http://xmlns.com/foaf/0.1/givenName,http://dbpedia.org/ontology/Person,,en,47,0,1.0
http://dbpedia.org/ontology/parent,http://dbpedia.org/ontology/title,http://purl.org/dc/terms/description,http://dbpedia.org/ontology/Person,,en,42,0,1.0
http://dbpedia.org/ontology/parent,http://xmlns.com/foaf/0.1/givenName,http://xmlns.com/foaf/0.1/name,http://dbpedia.org/ontology/Person,,en,40,0,1.0
http://dbpedia.org/ontology/parent,http://dbpedia.org/ontology/activeYearsEndYear,http://xmlns.com/foaf/0.1/gender,http://dbpedia.org/ontology/Person,http://www.w3.org/2001/XMLSchema#gYear,en,38,0,1.0
http://dbpedia.org/ontology/parent,http://xmlns.com/foaf/0.1/givenName,http://xmlns.com/foaf/0.1/surname,http://dbpedia.org/ontology/Person,,en,38,0,1.0
http://dbpedia.org/ontology/child,http://xmlns.com/foaf/0.1/givenName,http://xmlns.com/foaf/0.1/surname,http://dbpedia.org/ontology/Person,,en,33,0,1.0
http://dbpedia.org/ontology/parent,http://dbpedia.org/ontology/birthDate,http://xmlns.com/foaf/0.1/gender,http://dbpedia.org/ontology/Person,http://www.w3.org/2001/XMLSchema#date,en,32,0,1.0
http://dbpedia.org/ontology/relation,http://xmlns.com/foaf/0.1/gender,http://xmlns.com/foaf/0.1/name,http://dbpedia.org/ontology/Person,,en,30,0,1.0
http://dbpedia.org/ontology/relative,http://dbpedia.org/ontology/birthYear,http://xmlns.com/foaf/0.1/gender,http://dbpedia.org/ontology/Person,http://www.w3.org/2001/XMLSchema#gYear,en,29,0,1.0
http://dbpedia.org/ontology/child,http://xmlns.com/foaf/0.1/givenName,http://xmlns.com/foaf/0.1/name,http://dbpedia.org/ontology/Person,,en,29,0,1.0
http://dbpedia.org/ontology/relative,http://dbpedia.org/ontology/activeYearsStartYear,http://xmlns.com/foaf/0.1/gender,http://dbpedia.org/ontology/Person,http://www.w3.org/2001/XMLSchema#gYear,en,28,0,1.0
http://dbpedia.org/ontology/child,http://dbpedia.org/ontology/office,http://xmlns.com/foaf/0.1/gender,http://dbpedia.org/ontology/Person,http://www.w3.org/2001/XMLSchema#string,en,28,0,1.0
http://dbpedia.org/ontology/relation,http://dbpedia.org/ontology/office,http://purl.org/dc/terms/description,http://dbpedia.org/ontology/Person,http://www.w3.org/2001/XMLSchema#string,en,26,0,1.0
http://dbpedia.org/ontology/parent,http://dbpedia.org/ontology/title,http://xmlns.com/foaf/0.1/givenName,http://dbpedia.org/ontology/Person,,en,24,0,1.0
http://dbpedia.org/ontology/relation,http://xmlns.com/foaf/0.1/givenName,http://xmlns.com/foaf/0.1/name,http://dbpedia.org/ontology/Person,,en,24,0,1.0
http://dbpedia.org/ontology/relation,http://dbpedia.org/ontology/allegiance,http://xmlns.com/foaf/0.1/surname,http://dbpedia.org/ontology/Person,http://www.w3.org/2001/XMLSchema#string,en,23,0,1.0
http://dbpedia.org/ontology/parent,http://dbpedia.org/ontology/activeYearsStartYear,http://xmlns.com/foaf/0.1/givenName,http://dbpedia.org/ontology/Person,http://www.w3.org/2001/XMLSchema#gYear,en,22,0,1.0
http://dbpedia.org/ontology/parent,http://xmlns.com/foaf/0.1/name,http://xmlns.com/foaf/0.1/surname,http://dbpedia.org/ontology/Person,,en,22,0,1.0
http://dbpedia.org/ontology/relation,http://purl.org/dc/terms/description,http://xmlns.com/foaf/0.1/givenName,http://dbpedia.org/ontology/Person,,en,21,0,1.0
http://dbpedia.org/ontology/relation,http://dbpedia.org/ontology/office,http://xmlns.com/foaf/0.1/surname,http://dbpedia.org/ontology/Person,http://www.w3.org/2001/XMLSchema#string,en,21,0,1.0
http://dbpedia.org/ontology/relative,http://dbpedia.org/ontology/birthDate,http://xmlns.com/foaf/0.1/gender,http://dbpedia.org/ontology/Person,http://www.w3.org/2001/XMLSchema#date,en,20,0,1.0
http://dbpedia.org/ontology/parent,http://purl.org/dc/terms/description,http://xmlns.com/foaf/0.1/name,http://dbpedia.org/ontology/Person,,en,19,0,1.0
http://dbpedia.org/ontology/relative,http://dbpedia.org/ontology/activeYearsStartYear,http://xmlns.com/foaf/0.1/surname,http://dbpedia.org/ontology/Person,http://www.w3.org/2001/XMLSchema#gYear,en,19,0,1.0
http://dbpedia.org/ontology/relation,http://dbpedia.org/ontology/serviceStartYear,http://xmlns.com/foaf/0.1/gender,http://dbpedia.org/ontology/Person,http://www.w3.org/2001/XMLSchema#gYear,en,18,0,1.0
http://dbpedia.org/ontology/child,http://xmlns.com/foaf/0.1/name,http://xmlns.com/foaf/0.1/surname,http://dbpedia.org/ontology/Person,,en,18,0,1.0
http://dbpedia.org/ontology/relation,http://dbpedia.org/ontology/militaryCommand,http://xmlns.com/foaf/0.1/gender,http://dbpedia.org/ontology/Person,http://www.w3.org/2001/XMLSchema#string,en,17,0,1.0
http://dbpedia.org/ontology/relation,http://dbpedia.org/ontology/orderInOffice,http://xmlns.com/foaf/0.1/gender,http://dbpedia.org/ontology/Person,http://www.w3.org/2001/XMLSchema#string,en,17,0,1.0
http://dbpedia.org/ontology/relation,http://xmlns.com/foaf/0.1/givenName,http://xmlns.com/foaf/0.1/surname,http://dbpedia.org/ontology/Person,,en,16,0,1.0
http://dbpedia.org/ontology/parent,http://dbpedia.org/ontology/deathDate,http://xmlns.com/foaf/0.1/gender,http://dbpedia.org/ontology/Person,http://www.w3.org/2001/XMLSchema#date,en,15,0,1.0
http://dbpedia.org/ontology/spouse,http://dbpedia.org/ontology/office,http://purl.org/dc/terms/description,http://dbpedia.org/ontology/Person,http://www.w3.org/2001/XMLSchema#string,en,15,0,1.0
http://dbpedia.org/ontology/child,http://dbpedia.org/ontology/office,http://purl.org/dc/terms/description,http://dbpedia.org/ontology/Person,http://www.w3.org/2001/XMLSchema#string,en,15,0,1.0
http://dbpedia.org/ontology/relation,http://dbpedia.org/ontology/allegiance,http://purl.org/dc/terms/description,http://dbpedia.org/ontology/Person,http://www.w3.org/2001/XMLSchema#string,en,14,0,1.0
http://dbpedia.org/ontology/relative,http://dbpedia.org/ontology/deathYear,http://xmlns.com/foaf/0.1/gender,http://dbpedia.org/ontology/Person,http://www.w3.org/2001/XMLSchema#gYear,en,14,0,1.0
http://dbpedia.org/ontology/relation,http://xmlns.com/foaf/0.1/name,http://xmlns.com/foaf/0.1/surname,http://dbpedia.org/ontology/Person,,en,14,0,1.0
http://dbpedia.org/ontology/relative,http://xmlns.com/foaf/0.1/gender,http://xmlns.com/foaf/0.1/name,http://dbpedia.org/ontology/Person,,en,14,0,1.0
http://dbpedia.org/ontology/relative,http://dbpedia.org/ontology/birthDate,http://dbpedia.org/ontology/birthYear,http://dbpedia.org/ontology/Person,http://www.w3.org/2001/XMLSchema#date;http://www.w3.org/2001/XMLSchema#gYear,,14,0,1.0
http://dbpedia.org/ontology/child,http://dbpedia.org/ontology/deathYear,http://xmlns.com/foaf/0.1/gender,http://dbpedia.org/ontology/Person,http://www.w3.org/2001/XMLSchema#gYear,en,13,0,1.0
http://dbpedia.org/ontology/child,http://dbpedia.org/ontology/office,http://xmlns.com/foaf/0.1/surname,http://dbpedia.org/ontology/Person,http://www.w3.org/2001/XMLSchema#string,en,13,0,1.0
http://dbpedia.org/ontology/relative,http://dbpedia.org/ontology/activeYearsEndYear,http://xmlns.com/foaf/0.1/gender,http://dbpedia.org/ontology/Person,http://www.w3.org/2001/XMLSchema#gYear,en,12,0,1.0
http://dbpedia.org/ontology/relative,http://xmlns.com/foaf/0.1/name,http://xmlns.com/foaf/0.1/surname,http://dbpedia.org/ontology/Person,,en,12,0,1.0
http://dbpedia.org/ontology/spouse,http://dbpedia.org/ontology/activeYearsEndDate,http://dbpedia.org/ontology/activeYearsStartDate,http://dbpedia.org/ontology/Person,http://www.w3.org/2001/XMLSchema#date,,11,0,1.0
http://dbpedia.org/ontology/child,http://dbpedia.org/ontology/orderInOffice,http://xmlns.com/foaf/0.1/gender,http://dbpedia.org/ontology/Person,http://www.w3.org/2001/XMLSchema#string,en,11,0,1.0
http://dbpedia.org/ontology/relative,http://xmlns.com/foaf/0.1/givenName,http://xmlns.com/foaf/0.1/surname,http://dbpedia.org/ontology/Person,,en,11,0,1.0
http://dbpedia.org/ontology/relative,http://dbpedia.org/ontology/birthDate,http://purl.org/dc/terms/description,http://dbpedia.org/ontology/Person,http://www.w3.org/2001/XMLSchema#date,en,11,0,1.0
http://dbpedia.org/ontology/relative,http://xmlns.com/foaf/0.1/givenName,http://xmlns.com/foaf/0.1/name,http://dbpedia.org/ontology/Person,,en,11,0,1.0
http://dbpedia.org/ontology/spouse,http://dbpedia.org/ontology/birthYear,http://xmlns.com/foaf/0.1/surname,http://dbpedia.org/ontology/Person,http://www.w3.org/2001/XMLSchema#gYear,en,10,0,1.0
http://dbpedia.org/ontology/relation,http://dbpedia.org/ontology/orderInOffice,http://purl.org/dc/terms/description,http://dbpedia.org/ontology/Person,http://www.w3.org/2001/XMLSchema#string,en,10,0,1.0
http://dbpedia.org/ontology/relative,http://dbpedia.org/ontology/birthDate,http://xmlns.com/foaf/0.1/surname,http://dbpedia.org/ontology/Person,http://www.w3.org/2001/XMLSchema#date,en,10,0,1.0
http://dbpedia.org/ontology/relative,http://dbpedia.org/ontology/birthYear,http://xmlns.com/foaf/0.1/surname,http://dbpedia.org/ontology/Person,http://www.w3.org/2001/XMLSchema#gYear,en,10,0,1.0
http://dbpedia.org/ontology/relation,http://dbpedia.org/ontology/serviceEndYear,http://xmlns.com/foaf/0.1/gender,http://dbpedia.org/ontology/Person,http://www.w3.org/2001/XMLSchema#gYear,en,10,0,1.0
http://dbpedia.org/ontology/parent,http://dbpedia.org/ontology/activeYearsStartYear,http://xmlns.com/foaf/0.1/surname,http://dbpedia.org/ontology/Person,http://www.w3.org/2001/XMLSchema#gYear,en,9,0,1.0
http://dbpedia.org/ontology/relation,http://dbpedia.org/ontology/serviceStartYear,http://xmlns.com/foaf/0.1/surname,http://dbpedia.org/ontology/Person,http://www.w3.org/2001/XMLSchema#gYear,en,9,0,1.0
http://dbpedia.org/ontology/spouse,http://dbpedia.org/ontology/activeYearsStartDate,http://xmlns.com/foaf/0.1/surname,http://dbpedia.org/ontology/Person,http://www.w3.org/2001/XMLSchema#date,en,9,0,1.0
http://dbpedia.org/ontology/relative,http://dbpedia.org/ontology/height,http://xmlns.com/foaf/0.1/gender,http://dbpedia.org/ontology/Person,http://www.w3.org/2001/XMLSchema#double,en,9,0,1.0
http://dbpedia.org/ontology/spouse,http://dbpedia.org/ontology/activeYearsEndDate,http://xmlns.com/foaf/0.1/surname,http://dbpedia.org/ontology/Person,http://www.w3.org/2001/XMLSchema#date,en,9,0,1.0
http://dbpedia.org/ontology/spouse,http://dbpedia.org/ontology/orderInOffice,http://purl.org/dc/terms/description,http://dbpedia.org/ontology/Person,http://www.w3.org/2001/XMLSchema#string,en,9,0,1.0
http://dbpedia.org/ontology/relative,http://dbpedia.org/ontology/height,http://purl.org/dc/terms/description,http://dbpedia.org/ontology/Person,http://www.w3.org/2001/XMLSchema#double,en,9,0,1.0
http://dbpedia.org/ontology/relative,http://dbpedia.org/ontology/activeYearsStartYear,http://purl.org/dc/terms/description,http://dbpedia.org/ontology/Person,http://www.w3.org/2001/XMLSchema#gYear,en,8,0,1.0
http://dbpedia.org/ontology/relative,http://dbpedia.org/ontology/activeYearsStartYear,http://dbpedia.org/ontology/birthYear,http://dbpedia.org/ontology/Person,http://www.w3.org/2001/XMLSchema#gYear,,8,0,1.0
http://dbpedia.org/ontology/parent,http://dbpedia.org/ontology/activeYearsEndYear,http://dbpedia.org/ontology/title,http://dbpedia.org/ontology/Person,http://www.w3.org/2001/XMLSchema#gYear,en,8,0,1.0
http://dbpedia.org/ontology/spouse,http://dbpedia.org/ontology/activeYearsEndYear,http://dbpedia.org/ontology/birthDate,http://dbpedia.org/ontology/Person,http://www.w3.org/2001/XMLSchema#date;http://www.w3.org/2001/XMLSchema#gYear,,8,0,1.0
http://dbpedia.org/ontology/relation,http://dbpedia.org/ontology/allegiance,http://dbpedia.org/ontology/serviceStartYear,http://dbpedia.org/ontology/Person,http://www.w3.org/2001/XMLSchema#gYear;http://www.w3.org/2001/XMLSchema#string,,8,0,1.0
http://dbpedia.org/ontology/child,http://dbpedia.org/ontology/activeYearsStartYear,http://xmlns.com/foaf/0.1/gender,http://dbpedia.org/ontology/Person,http://www.w3.org/2001/XMLSchema#gYear,en,7,0,1.0
http://dbpedia.org/ontology/child,http://purl.org/dc/terms/description,http://xmlns.com/foaf/0.1/name,http://dbpedia.org/ontology/Person,,en,7,0,1.0
http://dbpedia.org/ontology/child,http://dbpedia.org/ontology/activeYearsStartYear,http://xmlns.com/foaf/0.1/surname,http://dbpedia.org/ontology/Person,http://www.w3.org/2001/XMLSchema#gYear,en,7,0,1.0
http://dbpedia.org/ontology/relation,http://dbpedia.org/ontology/birthDate,http://xmlns.com/foaf/0.1/gender,http://dbpedia.org/ontology/Person,http://www.w3.org/2001/XMLSchema#date,en,7,0,1.0
http://dbpedia.org/ontology/relative,http://dbpedia.org/ontology/birthYear,http://purl.org/dc/terms/description,http://dbpedia.org/ontology/Person,http://www.w3.org/2001/XMLSchema#gYear,en,7,0,1.0
http://dbpedia.org/ontology/relation,http://dbpedia.org/ontology/office,http://xmlns.com/foaf/0.1/givenName,http://dbpedia.org/ontology/Person,http://www.w3.org/2001/XMLSchema#string,en,7,0,1.0
http://dbpedia.org/ontology/spouse,http://purl.org/dc/terms/description,http://xmlns.com/foaf/0.1/gender,http://dbpedia.org/ontology/Person,,en,6,0,1.0
http://dbpedia.org/ontology/relative,http://dbpedia.org/ontology/activeYearsEndYear,http://xmlns.com/foaf/0.1/surname,http://dbpedia.org/ontology/Person,http://www.w3.org/2001/XMLSchema#gYear,en,6,0,1.0
http://dbpedia.org/ontology/parent,http://dbpedia.org/ontology/title,http://xmlns.com/foaf/0.1/name,http://dbpedia.org/ontology/Person,,en,6,0,1.0
http://dbpedia.org/ontology/relation,http://dbpedia.org/ontology/allegiance,http://dbpedia.org/ontology/militaryCommand,http://dbpedia.org/ontology/Person,http://www.w3.org/2001/XMLSchema#string,,6,0,1.0
http://dbpedia.org/ontology/child,http://dbpedia.org/ontology/activeYearsEndYear,http://xmlns.com/foaf/0.1/gender,http://dbpedia.org/ontology/Person,http://www.w3.org/2001/XMLSchema#gYear,en,6,0,1.0
http://dbpedia.org/ontology/relative,http://purl.org/dc/terms/description,http://xmlns.com/foaf/0.1/givenName,http://dbpedia.org/ontology/Person,,en,6,0,1.0
http://dbpedia.org/ontology/parent,http://dbpedia.org/ontology/birthYear,http://xmlns.com/foaf/0.1/gender,http://dbpedia.org/ontology/Person,http://www.w3.org/2001/XMLSchema#gYear,en,6,0,1.0
http://dbpedia.org/ontology/relation,http://dbpedia.org/ontology/orderInOffice,http://xmlns.com/foaf/0.1/surname,http://dbpedia.org/ontology/Person,http://www.w3.org/2001/XMLSchema#string,en,6,0,1.0
http://dbpedia.org/ontology/parent,http://dbpedia.org/ontology/activeYearsEndYear,http://dbpedia.org/ontology/activeYearsStartYear,http://dbpedia.org/ontology/Person,http://www.w3.org/2001/XMLSchema#gYear,,6,0,1.0
http://dbpedia.org/ontology/spouse,http://dbpedia.org/ontology/activeYearsStartYear,http://dbpedia.org/ontology/birthDate,http://dbpedia.org/ontology/Person,http://www.w3.org/2001/XMLSchema#date;http://www.w3.org/2001/XMLSchema#gYear,,6,0,1.0
http://dbpedia.org/ontology/relative,http://dbpedia.org/ontology/activeYearsEndYear,http://purl.org/dc/terms/description,http://dbpedia.org/ontology/Person,http://www.w3.org/2001/XMLSchema#gYear,en,6,0,1.0
http://dbpedia.org/ontology/relative,http://dbpedia.org/ontology/activeYearsEndYear,http://dbpedia.org/ontology/activeYearsStartYear,http://dbpedia.org/ontology/Person,http://www.w3.org/2001/XMLSchema#gYear,,6,0,1.0
http://dbpedia.org/ontology/parent,http://dbpedia.org/ontology/birthDate,http://purl.org/dc/terms/description,http://dbpedia.org/ontology/Person,http://www.w3.org/2001/XMLSchema#date,en,6,0,1.0
http://dbpedia.org/ontology/spouse,http://dbpedia.org/ontology/deathDate,http://xmlns.com/foaf/0.1/surname,http://dbpedia.org/ontology/Person,http://www.w3.org/2001/XMLSchema#date,en,5,0,1.0
http://dbpedia.org/ontology/child,http://dbpedia.org/ontology/activeYearsEndYear,http://xmlns.com/foaf/0.1/surname,http://dbpedia.org/ontology/Person,http://www.w3.org/2001/XMLSchema#gYear,en,5,0,1.0
http://dbpedia.org/ontology/child,http://dbpedia.org/ontology/birthName,http://xmlns.com/foaf/0.1/gender,http://dbpedia.org/ontology/Person,,en,5,0,1.0
http://dbpedia.org/ontology/spouse,http://dbpedia.org/ontology/orderInOffice,http://xmlns.com/foaf/0.1/surname,http://dbpedia.org/ontology/Person,http://www.w3.org/2001/XMLSchema#string,en,5,0,1.0
http://dbpedia.org/ontology/child,http://dbpedia.org/ontology/office,http://xmlns.com/foaf/0.1/givenName,http://dbpedia.org/ontology/Person,http://www.w3.org/2001/XMLSchema#string,en,5,0,1.0
http://dbpedia.org/ontology/spouse,http://dbpedia.org/ontology/activeYearsStartYear,http://xmlns.com/foaf/0.1/surname,http://dbpedia.org/ontology/Person,http://www.w3.org/2001/XMLSchema#gYear,en,5,0,1.0
http://dbpedia.org/ontology/relative,http://dbpedia.org/ontology/networth,http://purl.org/dc/terms/description,http://dbpedia.org/ontology/Person,http://dbpedia.org/datatype/usDollar,en,5,0,1.0
http://dbpedia.org/ontology/parent,http://dbpedia.org/ontology/activeYearsEndYear,http://purl.org/dc/terms/description,http://dbpedia.org/ontology/Person,http://www.w3.org/2001/XMLSchema#gYear,en,5,0,1.0
http://dbpedia.org/ontology/relation,http://purl.org/dc/terms/description,http://xmlns.com/foaf/0.1/name,http://dbpedia.org/ontology/Person,,en,5,0,1.0
http://dbpedia.org/ontology/spouse,http://dbpedia.org/ontology/birthYear,http://purl.org/dc/terms/description,http://dbpedia.org/ontology/Person,http://www.w3.org/2001/XMLSchema#gYear,en,5,0,1.0
http://dbpedia.org/ontology/parent,http://dbpedia.org/ontology/birthDate,http://dbpedia.org/ontology/title,http://dbpedia.org/ontology/Person,http://www.w3.org/2001/XMLSchema#date,en,5,0,1.0
http://dbpedia.org/ontology/relation,http://dbpedia.org/ontology/serviceEndYear,http://xmlns.com/foaf/0.1/surname,http://dbpedia.org/ontology/Person,http://www.w3.org/2001/XMLSchema#gYear,en,5,0,1.0
http://dbpedia.org/ontology/spouse,http://dbpedia.org/ontology/activeYearsStartYear,http://purl.org/dc/terms/description,http://dbpedia.org/ontology/Person,http://www.w3.org/2001/XMLSchema#gYear,en,5,0,1.0
http://dbpedia.org/ontology/relation,http://dbpedia.org/ontology/birthDate,http://xmlns.com/foaf/0.1/surname,http://dbpedia.org/ontology/Person,http://www.w3.org/2001/XMLSchema#date,en,5,0,1.0
http://dbpedia.org/ontology/relative,http://dbpedia.org/ontology/networth,http://xmlns.com/foaf/0.1/gender,http://dbpedia.org/ontology/Person,http://dbpedia.org/datatype/usDollar,en,5,0,1.0
http://dbpedia.org/ontology/relative,http://dbpedia.org/ontology/height,http://xmlns.com/foaf/0.1/surname,http://dbpedia.org/ontology/Person,http://www.w3.org/2001/XMLSchema#double,en,4,0,1.0
http://dbpedia.org/ontology/parent,http://dbpedia.org/ontology/birthYear,http://xmlns.com/foaf/0.1/surname,http://dbpedia.org/ontology/Person,http://www.w3.org/2001/XMLSchema#gYear,en,4,0,1.0
http://dbpedia.org/ontology/child,http://dbpedia.org/ontology/birthName,http://xmlns.com/foaf/0.1/givenName,http://dbpedia.org/ontology/Person,,en,4,0,1.0
http://dbpedia.org/ontology/spouse,http://dbpedia.org/ontology/deathYear,http://xmlns.com/foaf/0.1/surname,http://dbpedia.org/ontology/Person,http://www.w3.org/2001/XMLSchema#gYear,en,4,0,1.0
http://dbpedia.org/ontology/spouse,http://dbpedia.org/ontology/birthDate,http://xmlns.com/foaf/0.1/surname,http://dbpedia.org/ontology/Person,http://www.w3.org/2001/XMLSchema#date,en,4,0,1.0
http://dbpedia.org/ontology/child,http://dbpedia.org/ontology/deathYear,http://xmlns.com/foaf/0.1/surname,http://dbpedia.org/ontology/Person,http://www.w3.org/2001/XMLSchema#gYear,en,4,0,1.0
http://dbpedia.org/ontology/parent,http://dbpedia.org/ontology/activeYearsEndYear,http://xmlns.com/foaf/0.1/givenName,http://dbpedia.org/ontology/Person,http://www.w3.org/2001/XMLSchema#gYear,en,4,0,1.0
http://dbpedia.org/ontology/parent,http://dbpedia.org/ontology/deathYear,http://xmlns.com/foaf/0.1/gender,http://dbpedia.org/ontology/Person,http://www.w3.org/2001/XMLSchema#gYear,en,4,0,1.0
http://dbpedia.org/ontology/parent,http://dbpedia.org/ontology/title,http://xmlns.com/foaf/0.1/surname,http://dbpedia.org/ontology/Person,,en,4,0,1.0
http://dbpedia.org/ontology/opponent,http://purl.org/dc/terms/description,http://xmlns.com/foaf/0.1/gender,http://dbpedia.org/ontology/Person,,en,4,0,1.0
http://dbpedia.org/ontology/relative,http://dbpedia.org/ontology/activeYearsStartYear,http://dbpedia.org/ontology/birthDate,http://dbpedia.org/ontology/Person,http://www.w3.org/2001/XMLSchema#date;http://www.w3.org/2001/XMLSchema#gYear,,4,0,1.0
http://dbpedia.org/ontology/relation,http://dbpedia.org/ontology/serviceEndYear,http://dbpedia.org/ontology/serviceStartYear,http://dbpedia.org/ontology/Person,http://www.w3.org/2001/XMLSchema#gYear,,4,0,1.0
http://dbpedia.org/ontology/relation,http://dbpedia.org/ontology/birthName,http://xmlns.com/foaf/0.1/gender,http://dbpedia.org/ontology/Person,,en,4,0,1.0
http://dbpedia.org/ontology/parent,http://dbpedia.org/ontology/activeYearsStartYear,http://dbpedia.org/ontology/birthDate,http://dbpedia.org/ontology/Person,http://www.w3.org/2001/XMLSchema#date;http://www.w3.org/2001/XMLSchema#gYear,,4,0,1.0
http://dbpedia.org/ontology/relation,http://dbpedia.org/ontology/birthName,http://xmlns.com/foaf/0.1/givenName,http://dbpedia.org/ontology/Person,,en,4,0,1.0
http://dbpedia.org/ontology/relation,http://dbpedia.org/ontology/allegiance,http://xmlns.com/foaf/0.1/givenName,http://dbpedia.org/ontology/Person,http://www.w3.org/2001/XMLSchema#string,en,4,0,1.0
http://dbpedia.org/ontology/partner,http://purl.org/dc/terms/description,http://xmlns.com/foaf/0.1/gender,http://dbpedia.org/ontology/Person,,en,4,0,1.0
http://dbpedia.org/ontology/relation,http://dbpedia.org/ontology/militaryCommand,http://xmlns.com/foaf/0.1/surname,http://dbpedia.org/ontology/Person,http://www.w3.org/2001/XMLSchema#string,en,4,0,1.0
http://dbpedia.org/ontology/relation,http://dbpedia.org/ontology/militaryCommand,http://purl.org/dc/terms/description,http://dbpedia.org/ontology/Person,http://www.w3.org/2001/XMLSchema#string,en,3,0,1.0
http://dbpedia.org/ontology/child,http://dbpedia.org/ontology/orderInOffice,http://xmlns.com/foaf/0.1/givenName,http://dbpedia.org/ontology/Person,http://www.w3.org/2001/XMLSchema#string,en,3,0,1.0
http://dbpedia.org/ontology/relation,http://dbpedia.org/ontology/office,http://dbpedia.org/ontology/orderInOffice,http://dbpedia.org/ontology/Person,http://www.w3.org/2001/XMLSchema#string,,3,0,1.0
http://dbpedia.org/ontology/relation,http://dbpedia.org/ontology/networth,http://xmlns.com/foaf/0.1/gender,http://dbpedia.org/ontology/Person,http://dbpedia.org/datatype/usDollar,en,3,0,1.0
http://dbpedia.org/ontology/child,http://dbpedia.org/ontology/deathDate,http://xmlns.com/foaf/0.1/gender,http://dbpedia.org/ontology/Person,http://www.w3.org/2001/XMLSchema#date,en,3,0,1.0
http://dbpedia.org/ontology/parent,http://dbpedia.org/ontology/activeYearsStartYear,http://xmlns.com/foaf/0.1/name,http://dbpedia.org/ontology/Person,http://www.w3.org/2001/XMLSchema#gYear,en,3,0,1.0
http://dbpedia.org/ontology/relation,http://dbpedia.org/ontology/serviceEndYear,http://purl.org/dc/terms/description,http://dbpedia.org/ontology/Person,http://www.w3.org/2001/XMLSchema#gYear,en,3,0,1.0
http://dbpedia.org/ontology/relation,http://dbpedia.org/ontology/office,http://xmlns.com/foaf/0.1/name,http://dbpedia.org/ontology/Person,http://www.w3.org/2001/XMLSchema#string,en,3,0,1.0
http://dbpedia.org/ontology/relation,http://dbpedia.org/ontology/activeYearsStartDate,http://xmlns.com/foaf/0.1/gender,http://dbpedia.org/ontology/Person,http://www.w3.org/2001/XMLSchema#date,en,3,0,1.0
http://dbpedia.org/ontology/relative,http://dbpedia.org/ontology/deathYear,http://purl.org/dc/terms/description,http://dbpedia.org/ontology/Person,http://www.w3.org/2001/XMLSchema#gYear,en,3,0,1.0
http://dbpedia.org/ontology/child,http://dbpedia.org/ontology/orderInOffice,http://purl.org/dc/terms/description,http://dbpedia.org/ontology/Person,http://www.w3.org/2001/XMLSchema#string,en,3,0,1.0
http://dbpedia.org/ontology/relative,http://dbpedia.org/ontology/activeYearsEndYear,http://dbpedia.org/ontology/birthYear,http://dbpedia.org/ontology/Person,http://www.w3.org/2001/XMLSchema#gYear,,3,0,1.0
http://dbpedia.org/ontology/relation,http://dbpedia.org/ontology/militaryCommand,http://xmlns.com/foaf/0.1/givenName,http://dbpedia.org/ontology/Person,http://www.w3.org/2001/XMLSchema#string,en,3,0,1.0
http://dbpedia.org/ontology/relation,http://dbpedia.org/ontology/networth,http://purl.org/dc/terms/description,http://dbpedia.org/ontology/Person,http://dbpedia.org/datatype/usDollar,en,3,0,1.0
http://dbpedia.org/ontology/relation,http://dbpedia.org/ontology/serviceStartYear,http://purl.org/dc/terms/description,http://dbpedia.org/ontology/Person,http://www.w3.org/2001/XMLSchema#gYear,en,3,0,1.0
http://dbpedia.org/ontology/spouse,http://dbpedia.org/ontology/title,http://xmlns.com/foaf/0.1/surname,http://dbpedia.org/ontology/Person,,en,2,0,1.0
http://dbpedia.org/ontology/child,http://dbpedia.org/ontology/activeYearsEndDate,http://purl.org/dc/terms/description,http://dbpedia.org/ontology/Person,http://www.w3.org/2001/XMLSchema#date,en,2,0,1.0
http://dbpedia.org/ontology/relative,http://purl.org/dc/terms/description,http://xmlns.com/foaf/0.1/name,http://dbpedia.org/ontology/Person,,en,2,0,1.0
http://dbpedia.org/ontology/child,http://dbpedia.org/ontology/orderInOffice,http://xmlns.com/foaf/0.1/surname,http://dbpedia.org/ontology/Person,http://www.w3.org/2001/XMLSchema#string,en,2,0,1.0
http://dbpedia.org/ontology/parent,http://dbpedia.org/ontology/birthName,http://xmlns.com/foaf/0.1/givenName,http://dbpedia.org/ontology/Person,,en,2,0,1.0
http://dbpedia.org/ontology/relation,http://dbpedia.org/ontology/birthDate,http://purl.org/dc/terms/description,http://dbpedia.org/ontology/Person,http://www.w3.org/2001/XMLSchema#date,en,2,0,1.0
http://dbpedia.org/ontology/parent,http://dbpedia.org/ontology/deathYear,http://xmlns.com/foaf/0.1/surname,http://dbpedia.org/ontology/Person,http://www.w3.org/2001/XMLSchema#gYear,en,2,0,1.0
http://dbpedia.org/ontology/relation,http://dbpedia.org/ontology/birthDate,http://dbpedia.org/ontology/militaryCommand,http://dbpedia.org/ontology/Person,http://www.w3.org/2001/XMLSchema#date;http://www.w3.org/2001/XMLSchema#string,,2,0,1.0
http://dbpedia.org/ontology/relation,http://dbpedia.org/ontology/allegiance,http://dbpedia.org/ontology/birthDate,http://dbpedia.org/ontology/Person,http://www.w3.org/2001/XMLSchema#date;http://www.w3.org/2001/XMLSchema#string,,2,0,1.0
http://dbpedia.org/ontology/spouse,http://dbpedia.org/ontology/activeYearsEndDate,http://dbpedia.org/ontology/office,http://dbpedia.org/ontology/Person,http://www.w3.org/2001/XMLSchema#date;http://www.w3.org/2001/XMLSchema#string,,2,0,1.0
http://dbpedia.org/ontology/spouse,http://dbpedia.org/ontology/activeYearsStartYear,http://xmlns.com/foaf/0.1/gender,http://dbpedia.org/ontology/Person,http://www.w3.org/2001/XMLSchema#gYear,en,2,0,1.0
http://dbpedia.org/ontology/child,http://dbpedia.org/ontology/birthDate,http://xmlns.com/foaf/0.1/gender,http://dbpedia.org/ontology/Person,http://www.w3.org/2001/XMLSchema#date,en,2,0,1.0
http://dbpedia.org/ontology/parent,http://dbpedia.org/ontology/activeYearsEndYear,http://xmlns.com/foaf/0.1/surname,http://dbpedia.org/ontology/Person,http://www.w3.org/2001/XMLSchema#gYear,en,2,0,1.0
http://dbpedia.org/ontology/spouse,http://dbpedia.org/ontology/office,http://xmlns.com/foaf/0.1/surname,http://dbpedia.org/ontology/Person,http://www.w3.org/2001/XMLSchema#string,en,2,0,1.0
http://dbpedia.org/ontology/relative,http://dbpedia.org/ontology/deathYear,http://xmlns.com/foaf/0.1/surname,http://dbpedia.org/ontology/Person,http://www.w3.org/2001/XMLSchema#gYear,en,2,0,1.0
http://dbpedia.org/ontology/parent,http://dbpedia.org/ontology/birthName,http://xmlns.com/foaf/0.1/gender,http://dbpedia.org/ontology/Person,,en,2,0,1.0
http://dbpedia.org/ontology/spouse,http://dbpedia.org/ontology/seniority,http://purl.org/dc/terms/description,http://dbpedia.org/ontology/Person,http://www.w3.org/2001/XMLSchema#string,en,2,0,1.0
http://dbpedia.org/ontology/child,http://dbpedia.org/ontology/orderInOffice,http://xmlns.com/foaf/0.1/name,http://dbpedia.org/ontology/Person,http://www.w3.org/2001/XMLSchema#string,en,2,0,1.0
http://dbpedia.org/ontology/relative,http://dbpedia.org/ontology/deathYear,http://dbpedia.org/ontology/networth,http://dbpedia.org/ontology/Person,http://www.w3.org/2001/XMLSchema#gYear;http://dbpedia.org/datatype/usDollar,,2,0,1.0
http://dbpedia.org/ontology/spouse,http://dbpedia.org/ontology/orderInOffice,http://xmlns.com/foaf/0.1/gender,http://dbpedia.org/ontology/Person,http://www.w3.org/2001/XMLSchema#string,en,2,0,1.0
http://dbpedia.org/ontology/spouse,http://dbpedia.org/ontology/activeYearsEndYear,http://xmlns.com/foaf/0.1/gender,http://dbpedia.org/ontology/Person,http://www.w3.org/2001/XMLSchema#gYear,en,2,0,1.0
http://dbpedia.org/ontology/relation,http://dbpedia.org/ontology/militaryCommand,http://dbpedia.org/ontology/serviceEndYear,http://dbpedia.org/ontology/Person,http://www.w3.org/2001/XMLSchema#gYear;http://www.w3.org/2001/XMLSchema#string,,2,0,1.0
http://dbpedia.org/ontology/relative,http://dbpedia.org/ontology/activeYearsStartYear,http://dbpedia.org/ontology/deathYear,http://dbpedia.org/ontology/Person,http://www.w3.org/2001/XMLSchema#gYear,,2,0,1.0
http://dbpedia.org/ontology/spouse,http://dbpedia.org/ontology/activeYearsStartDate,http://dbpedia.org/ontology/office,http://dbpedia.org/ontology/Person,http://www.w3.org/2001/XMLSchema#date;http://www.w3.org/2001/XMLSchema#string,,2,0,1.0
http://dbpedia.org/ontology/child,http://dbpedia.org/ontology/activeYearsEndDate,http://xmlns.com/foaf/0.1/gender,http://dbpedia.org/ontology/Person,http://www.w3.org/2001/XMLSchema#date,en,2,0,1.0
http://dbpedia.org/ontology/relation,http://dbpedia.org/ontology/activeYearsStartYear,http://xmlns.com/foaf/0.1/gender,http://dbpedia.org/ontology/Person,http://www.w3.org/2001/XMLSchema#gYear,en,2,0,1.0
http://dbpedia.org/ontology/relative,http://dbpedia.org/ontology/birthYear,http://dbpedia.org/ontology/deathYear,http://dbpedia.org/ontology/Person,http://www.w3.org/2001/XMLSchema#gYear,,2,0,1.0
http://dbpedia.org/ontology/relation,http://dbpedia.org/ontology/deathYear,http://xmlns.com/foaf/0.1/gender,http://dbpedia.org/ontology/Person,http://www.w3.org/2001/XMLSchema#gYear,en,2,0,1.0
http://dbpedia.org/ontology/relative,http://dbpedia.org/ontology/networth,http://xmlns.com/foaf/0.1/surname,http://dbpedia.org/ontology/Person,http://dbpedia.org/datatype/usDollar,en,2,0,1.0
http://dbpedia.org/ontology/relation,http://dbpedia.org/ontology/birthYear,http://xmlns.com/foaf/0.1/gender,http://dbpedia.org/ontology/Person,http://www.w3.org/2001/XMLSchema#gYear,en,2,0,1.0
http://dbpedia.org/ontology/child,http://dbpedia.org/ontology/deathYear,http://purl.org/dc/terms/description,http://dbpedia.org/ontology/Person,http://www.w3.org/2001/XMLSchema#gYear,en,2,0,1.0
http://dbpedia.org/ontology/parent,http://dbpedia.org/ontology/birthDate,http://dbpedia.org/ontology/deathDate,http://dbpedia.org/ontology/Person,http://www.w3.org/2001/XMLSchema#date,,2,0,1.0
http://dbpedia.org/ontology/parent,http://dbpedia.org/ontology/deathDate,http://purl.org/dc/terms/description,http://dbpedia.org/ontology/Person,http://www.w3.org/2001/XMLSchema#date,en,2,0,1.0
http://dbpedia.org/ontology/parent,http://dbpedia.org/ontology/networth,http://xmlns.com/foaf/0.1/gender,http://dbpedia.org/ontology/Person,http://dbpedia.org/datatype/poundSterling,en,2,0,1.0
http://dbpedia.org/ontology/parent,http://dbpedia.org/ontology/alias,http://xmlns.com/foaf/0.1/givenName,http://dbpedia.org/ontology/Person,,en,2,0,1.0
http://dbpedia.org/ontology/relative,http://dbpedia.org/ontology/activeYearsEndYear,http://dbpedia.org/ontology/birthDate,http://dbpedia.org/ontology/Person,http://www.w3.org/2001/XMLSchema#date;http://www.w3.org/2001/XMLSchema#gYear,,2,0,1.0
http://dbpedia.org/ontology/parent,http://dbpedia.org/ontology/alias,http://xmlns.com/foaf/0.1/gender,http://dbpedia.org/ontology/Person,,en,2,0,1.0
http://dbpedia.org/ontology/relative,http://dbpedia.org/ontology/networth,http://xmlns.com/foaf/0.1/name,http://dbpedia.org/ontology/Person,http://dbpedia.org/datatype/usDollar,en,2,0,1.0
http://dbpedia.org/ontology/relation,http://dbpedia.org/ontology/activeYearsEndYear,http://xmlns.com/foaf/0.1/gender,http://dbpedia.org/ontology/Person,http://www.w3.org/2001/XMLSchema#gYear,en,2,0,1.0
http://dbpedia.org/ontology/relation,http://dbpedia.org/ontology/deathDate,http://xmlns.com/foaf/0.1/gender,http://dbpedia.org/ontology/Person,http://www.w3.org/2001/XMLSchema#date,en,2,0,1.0
http://dbpedia.org/ontology/spouse,http://dbpedia.org/ontology/activeYearsEndYear,http://purl.org/dc/terms/description,http://dbpedia.org/ontology/Person,http://www.w3.org/2001/XMLSchema#gYear,en,2,0,1.0
http://dbpedia.org/ontology/relative,http://dbpedia.org/ontology/birthDate,http://dbpedia.org/ontology/deathDate,http://dbpedia.org/ontology/Person,http://www.w3.org/2001/XMLSchema#date,,2,0,1.0
http://dbpedia.org/ontology/spouse,http://dbpedia.org/ontology/office,http://dbpedia.org/ontology/orderInOffice,http://dbpedia.org/ontology/Person,http://www.w3.org/2001/XMLSchema#string,,2,0,1.0
http://dbpedia.org/ontology/relation,http://dbpedia.org/ontology/militaryCommand,http://dbpedia.org/ontology/serviceStartYear,http://dbpedia.org/ontology/Person,http://www.w3.org/2001/XMLSchema#gYear;http://www.w3.org/2001/XMLSchema#string,,2,0,1.0
http://dbpedia.org/ontology/relation,http://dbpedia.org/ontology/birthDate,http://dbpedia.org/ontology/serviceStartYear,http://dbpedia.org/ontology/Person,http://www.w3.org/2001/XMLSchema#date;http://www.w3.org/2001/XMLSchema#gYear,,2,0,1.0
http://dbpedia.org/ontology/relation,http://dbpedia.org/ontology/title,http://xmlns.com/foaf/0.1/gender,http://dbpedia.org/ontology/Person,,en,2,0,1.0
http://dbpedia.org/ontology/spouse,http://xmlns.com/foaf/0.1/gender,http://xmlns.com/foaf/0.1/givenName,http://dbpedia.org/ontology/Person,,en,2,0,1.0
http://dbpedia.org/ontology/parent,http://dbpedia.org/ontology/deathDate,http://xmlns.com/foaf/0.1/name,http://dbpedia.org/ontology/Person,http://www.w3.org/2001/XMLSchema#date,en,1,0,1.0
http://dbpedia.org/ontology/spouse,http://dbpedia.org/ontology/birthDate,http://xmlns.com/foaf/0.1/gender,http://dbpedia.org/ontology/Person,http://www.w3.org/2001/XMLSchema#date,en,1,0,1.0
http://dbpedia.org/ontology/child,http://dbpedia.org/ontology/office,http://xmlns.com/foaf/0.1/name,http://dbpedia.org/ontology/Person,http://www.w3.org/2001/XMLSchema#string,en,1,0,1.0
http://dbpedia.org/ontology/parent,http://dbpedia.org/ontology/birthDate,http://xmlns.com/foaf/0.1/givenName,http://dbpedia.org/ontology/Person,http://www.w3.org/2001/XMLSchema#date,en,1,0,1.0
http://dbpedia.org/ontology/relation,http://dbpedia.org/ontology/seniority,http://xmlns.com/foaf/0.1/surname,http://dbpedia.org/ontology/Person,http://www.w3.org/2001/XMLSchema#string,en,1,0,1.0
http://dbpedia.org/ontology/child,http://dbpedia.org/ontology/title,http://xmlns.com/foaf/0.1/givenName,http://dbpedia.org/ontology/Person,,en,1,0,1.0
http://dbpedia.org/ontology/relation,http://dbpedia.org/ontology/birthDate,http://dbpedia.org/ontology/office,http://dbpedia.org/ontology/Person,http://www.w3.org/2001/XMLSchema#date;http://www.w3.org/2001/XMLSchema#string,,1,0,1.0
http://dbpedia.org/ontology/relation,http://dbpedia.org/ontology/activeYearsStartDate,http://dbpedia.org/ontology/office,http://dbpedia.org/ontology/Person,http://www.w3.org/2001/XMLSchema#date;http://www.w3.org/2001/XMLSchema#string,,1,0,1.0
http://dbpedia.org/ontology/relation,http://dbpedia.org/ontology/activeYearsStartDate,http://purl.org/dc/terms/description,http://dbpedia.org/ontology/Person,http://www.w3.org/2001/XMLSchema#date,en,1,0,1.0
http://dbpedia.org/ontology/parent,http://dbpedia.org/ontology/birthName,http://xmlns.com/foaf/0.1/surname,http://dbpedia.org/ontology/Person,,en,1,0,1.0
http://dbpedia.org/ontology/child,http://dbpedia.org/ontology/activeYearsStartDate,http://xmlns.com/foaf/0.1/gender,http://dbpedia.org/ontology/Person,http://www.w3.org/2001/XMLSchema#date,en,1,0,1.0
http://dbpedia.org/ontology/relation,http://dbpedia.org/ontology/birthDate,http://dbpedia.org/ontology/birthYear,http://dbpedia.org/ontology/Person,http://www.w3.org/2001/XMLSchema#date;http://www.w3.org/2001/XMLSchema#gYear,,1,0,1.0
http://dbpedia.org/ontology/parent,http://dbpedia.org/ontology/hairColor,http://xmlns.com/foaf/0.1/gender,http://dbpedia.org/ontology/Person,http://www.w3.org/2001/XMLSchema#string,en,1,0,1.0
http://dbpedia.org/ontology/relation,http://dbpedia.org/ontology/birthName,http://purl.org/dc/terms/description,http://dbpedia.org/ontology/Person,,en,1,0,1.0
http://dbpedia.org/ontology/child,http://dbpedia.org/ontology/firstAppearance,http://xmlns.com/foaf/0.1/gender,http://dbpedia.org/ontology/Person,http://www.w3.org/2001/XMLSchema#string,en,1,0,1.0
http://dbpedia.org/ontology/child,http://dbpedia.org/ontology/militaryCommand,http://xmlns.com/foaf/0.1/gender,http://dbpedia.org/ontology/Person,http://www.w3.org/2001/XMLSchema#string,en,1,0,1.0
http://dbpedia.org/ontology/relative,http://dbpedia.org/ontology/firstAppearance,http://xmlns.com/foaf/0.1/gender,http://dbpedia.org/ontology/Person,http://www.w3.org/2001/XMLSchema#string,en,1,0,1.0
http://dbpedia.org/ontology/relation,http://dbpedia.org/ontology/birthName,http://dbpedia.org/ontology/office,http://dbpedia.org/ontology/Person,http://www.w3.org/2001/XMLSchema#string,en,1,0,1.0
http://dbpedia.org/ontology/relation,http://dbpedia.org/ontology/seniority,http://xmlns.com/foaf/0.1/gender,http://dbpedia.org/ontology/Person,http://www.w3.org/2001/XMLSchema#string,en,1,0,1.0
http://dbpedia.org/ontology/parent,http://dbpedia.org/ontology/deathDate,http://xmlns.com/foaf/0.1/givenName,http://dbpedia.org/ontology/Person,http://www.w3.org/2001/XMLSchema#date,en,1,0,1.0
http://dbpedia.org/ontology/relation,http://dbpedia.org/ontology/serviceStartYear,http://xmlns.com/foaf/0.1/name,http://dbpedia.org/ontology/Person,http://www.w3.org/2001/XMLSchema#gYear,en,1,0,1.0
http://dbpedia.org/ontology/relative,http://dbpedia.org/ontology/title,http://xmlns.com/foaf/0.1/gender,http://dbpedia.org/ontology/Person,,en,1,0,1.0
http://dbpedia.org/ontology/child,http://dbpedia.org/ontology/title,http://xmlns.com/foaf/0.1/gender,http://dbpedia.org/ontology/Person,,en,1,0,1.0
http://dbpedia.org/ontology/child,http://dbpedia.org/ontology/militaryCommand,http://xmlns.com/foaf/0.1/surname,http://dbpedia.org/ontology/Person,http://www.w3.org/2001/XMLSchema#string,en,1,0,1.0
http://dbpedia.org/ontology/opponent,http://xmlns.com/foaf/0.1/gender,http://xmlns.com/foaf/0.1/givenName,http://dbpedia.org/ontology/Person,,en,1,0,1.0
http://dbpedia.org/ontology/relation,http://dbpedia.org/ontology/allegiance,http://dbpedia.org/ontology/serviceEndYear,http://dbpedia.org/ontology/Person,http://www.w3.org/2001/XMLSchema#gYear;http://www.w3.org/2001/XMLSchema#string,,1,0,1.0
http://dbpedia.org/ontology/relation,http://dbpedia.org/ontology/title,http://purl.org/dc/terms/description,http://dbpedia.org/ontology/Person,,en,1,0,1.0
http://dbpedia.org/ontology/relative,http://dbpedia.org/ontology/birthDate,http://dbpedia.org/ontology/networth,http://dbpedia.org/ontology/Person,http://www.w3.org/2001/XMLSchema#date;http://dbpedia.org/datatype/usDollar,,1,0,1.0
http://dbpedia.org/ontology/opponent,http://dbpedia.org/ontology/birthDate,http://xmlns.com/foaf/0.1/gender,http://dbpedia.org/ontology/Person,http://www.w3.org/2001/XMLSchema#date,en,1,0,1.0
http://dbpedia.org/ontology/parent,http://dbpedia.org/ontology/activeYearsStartYear,http://dbpedia.org/ontology/deathDate,http://dbpedia.org/ontology/Person,http://www.w3.org/2001/XMLSchema#date;http://www.w3.org/2001/XMLSchema#gYear,,1,0,1.0
http://dbpedia.org/ontology/opponent,http://dbpedia.org/ontology/deathYear,http://xmlns.com/foaf/0.1/gender,http://dbpedia.org/ontology/Person,http://www.w3.org/2001/XMLSchema#gYear,en,1,0,1.0
http://dbpedia.org/ontology/child,http://dbpedia.org/ontology/alias,http://xmlns.com/foaf/0.1/gender,http://dbpedia.org/ontology/Person,,en,1,0,1.0
http://dbpedia.org/ontology/relation,http://dbpedia.org/ontology/activeYearsEndYear,http://xmlns.com/foaf/0.1/surname,http://dbpedia.org/ontology/Person,http://www.w3.org/2001/XMLSchema#gYear,en,1,0,1.0
http://dbpedia.org/ontology/child,http://dbpedia.org/ontology/activeYearsStartYear,http://purl.org/dc/terms/description,http://dbpedia.org/ontology/Person,http://www.w3.org/2001/XMLSchema#gYear,en,1,0,1.0
http://dbpedia.org/ontology/relative,http://xmlns.com/foaf/0.1/gender,http://xmlns.com/foaf/0.1/nick,http://dbpedia.org/ontology/Person,,en,1,0,1.0
http://dbpedia.org/ontology/relative,http://xmlns.com/foaf/0.1/name,http://xmlns.com/foaf/0.1/nick,http://dbpedia.org/ontology/Person,,en,1,0,1.0
http://dbpedia.org/ontology/child,http://dbpedia.org/ontology/birthName,http://purl.org/dc/terms/description,http://dbpedia.org/ontology/Person,,en,1,0,1.0
http://dbpedia.org/ontology/relation,http://dbpedia.org/ontology/orderInOffice,http://xmlns.com/foaf/0.1/givenName,http://dbpedia.org/ontology/Person,http://www.w3.org/2001/XMLSchema#string,en,1,0,1.0
http://dbpedia.org/ontology/spouse,http://dbpedia.org/ontology/activeYearsStartYear,http://dbpedia.org/ontology/birthYear,http://dbpedia.org/ontology/Person,http://www.w3.org/2001/XMLSchema#gYear,,1,0,1.0
http://dbpedia.org/ontology/child,http://dbpedia.org/ontology/militaryCommand,http://dbpedia.org/ontology/office,http://dbpedia.org/ontology/Person,http://www.w3.org/2001/XMLSchema#string,,1,0,1.0
http://dbpedia.org/ontology/child,http://dbpedia.org/ontology/birthDate,http://purl.org/dc/terms/description,http://dbpedia.org/ontology/Person,http://www.w3.org/2001/XMLSchema#date,en,1,0,1.0
http://dbpedia.org/ontology/child,http://dbpedia.org/ontology/activeYearsEndYear,http://purl.org/dc/terms/description,http://dbpedia.org/ontology/Person,http://www.w3.org/2001/XMLSchema#gYear,en,1,0,1.0
http://dbpedia.org/ontology/spouse,http://dbpedia.org/ontology/deathDate,http://purl.org/dc/terms/description,http://dbpedia.org/ontology/Person,http://www.w3.org/2001/XMLSchema#date,en,1,0,1.0
http://dbpedia.org/ontology/relation,http://dbpedia.org/ontology/activeYearsStartYear,http://xmlns.com/foaf/0.1/surname,http://dbpedia.org/ontology/Person,http://www.w3.org/2001/XMLSchema#gYear,en,1,0,1.0
http://dbpedia.org/ontology/child,http://dbpedia.org/ontology/office,http://dbpedia.org/ontology/orderInOffice,http://dbpedia.org/ontology/Person,http://www.w3.org/2001/XMLSchema#string,,1,0,1.0
http://dbpedia.org/ontology/relative,http://xmlns.com/foaf/0.1/nick,http://xmlns.com/foaf/0.1/surname,http://dbpedia.org/ontology/Person,,en,1,0,1.0
http://dbpedia.org/ontology/spouse,http://dbpedia.org/ontology/deathDate,http://dbpedia.org/ontology/deathYear,http://dbpedia.org/ontology/Person,http://www.w3.org/2001/XMLSchema#date;http://www.w3.org/2001/XMLSchema#gYear,,1,0,1.0
http://dbpedia.org/ontology/relation,http://dbpedia.org/ontology/serviceEndYear,http://xmlns.com/foaf/0.1/name,http://dbpedia.org/ontology/Person,http://www.w3.org/2001/XMLSchema#gYear,en,1,0,1.0
http://dbpedia.org/ontology/child,http://dbpedia.org/ontology/activeYearsEndDate,http://xmlns.com/foaf/0.1/surname,http://dbpedia.org/ontology/Person,http://www.w3.org/2001/XMLSchema#date,en,1,0,1.0
http://dbpedia.org/ontology/spouse,http://xmlns.com/foaf/0.1/gender,http://xmlns.com/foaf/0.1/surname,http://dbpedia.org/ontology/Person,,en,1,0,1.0
http://dbpedia.org/ontology/relative,http://xmlns.com/foaf/0.1/givenName,http://xmlns.com/foaf/0.1/nick,http://dbpedia.org/ontology/Person,,en,1,0,1.0
http://dbpedia.org/ontology/relation,http://dbpedia.org/ontology/birthDate,http://dbpedia.org/ontology/networth,http://dbpedia.org/ontology/Person,http://www.w3.org/2001/XMLSchema#date;http://dbpedia.org/datatype/usDollar,,1,0,1.0
http://dbpedia.org/ontology/parent,http://dbpedia.org/ontology/birthDate,http://dbpedia.org/ontology/birthYear,http://dbpedia.org/ontology/Person,http://www.w3.org/2001/XMLSchema#date;http://www.w3.org/2001/XMLSchema#gYear,,1,0,1.0
http://dbpedia.org/ontology/parent,http://dbpedia.org/ontology/birthYear,http://purl.org/dc/terms/description,http://dbpedia.org/ontology/Person,http://www.w3.org/2001/XMLSchema#gYear,en,1,0,1.0
http://dbpedia.org/ontology/child,http://dbpedia.org/ontology/deathDate,http://purl.org/dc/terms/description,http://dbpedia.org/ontology/Person,http://www.w3.org/2001/XMLSchema#date,en,1,0,1.0
http://dbpedia.org/ontology/relative,http://dbpedia.org/ontology/birthDate,http://dbpedia.org/ontology/height,http://dbpedia.org/ontology/Person,http://www.w3.org/2001/XMLSchema#date;http://www.w3.org/2001/XMLSchema#double,,1,0,1.0
http://dbpedia.org/ontology/relation,http://dbpedia.org/ontology/activeYearsStartDate,http://xmlns.com/foaf/0.1/surname,http://dbpedia.org/ontology/Person,http://www.w3.org/2001/XMLSchema#date,en,1,0,1.0
